<?xml version="1.0" encoding="UTF-8" standalone="no"?>
<svg
   xmlns:dc="http://purl.org/dc/elements/1.1/"
   xmlns:cc="http://creativecommons.org/ns#"
   xmlns:rdf="http://www.w3.org/1999/02/22-rdf-syntax-ns#"
   xmlns:svg="http://www.w3.org/2000/svg"
   xmlns="http://www.w3.org/2000/svg"
   xmlns:sodipodi="http://sodipodi.sourceforge.net/DTD/sodipodi-0.dtd"
   xmlns:inkscape="http://www.inkscape.org/namespaces/inkscape"
   version="1.1"
   viewBox="0 0 2048 2048"
   height="24"
   width="24">
  <metadata
     id="metadata10">
    <rdf:RDF>
      <cc:Work
         rdf:about="">
        <dc:format>image/svg+xml</dc:format>
      </cc:Work>
    </rdf:RDF>
  </metadata>
  <path
     d="M 960.53397,1788.8002 C 909.88627,1785.0136 839.89259,1771.0837 788.7221,1754.6068 554.39912,1679.1545 368.76029,1493.3364 293.16588,1258.5718 257.51111,1147.843 247.9536,1021.9015 266.195,903.17044 309.62108,620.51544 514.46092,381.70561 789.42818,293.16588 859.58925,270.57395 922.28365,260.2793 1002.031,258.25574 c 56.2343,-1.42694 99.1471,0.97125 144.0191,8.04851 240.6174,37.95052 451.0156,191.71287 562.6017,411.15826 55.4328,109.01423 81.7722,220.63626 81.7722,346.53749 0,125.9079 -26.3388,237.5222 -81.7796,346.5521 -38.9963,76.6903 -89.5179,145.0542 -151.074,204.4276 -128.8724,124.3031 -289.6274,197.9164 -465.2224,213.0359 -25.8949,2.2296 -106.10028,2.707 -131.81403,0.7846 z m 111.06553,-222.9594 c 102.6785,-7.3899 196.1517,-43.3879 284.347,-109.5065 22.8655,-17.142 66.4956,-59.065 86.7805,-83.3854 39.9801,-47.9336 78.9041,-117.6635 98.3136,-176.1227 38.1138,-114.7943 35.9414,-250.16835 -5.8162,-362.44813 -59.2515,-159.3179 -196.0502,-286.78136 -358.2223,-333.77703 -92.8816,-26.91602 -203.04775,-27.79679 -297.02117,-2.37467 -149.08676,40.33163 -276.42527,146.13311 -345.4707,287.04044 -44.71491,91.25385 -62.57653,191.98567 -52.34937,295.22789 23.11299,233.3232 201.12915,430.5515 430.36142,476.8074 54.24378,10.9457 95.13662,13.1407 159.07722,8.5387 z"
     style="fill:#006dcc"/>
  <path
     d="m 1009.354,1402.413 c -13.18771,-7.1134 -333.78669,-329.4131 -335.76114,-337.5423 -4.28242,-17.6314 7.66768,-36.4167 24.98662,-39.2785 5.12097,-0.8461 51.87582,-1.5506 103.89966,-1.5653 l 94.5888,-0.027 0.009,-180.02384 c 0.009,-176.25896 0.11215,-180.19282 4.93546,-188.10398 9.05603,-14.85367 11.12045,-15.10937 121.9875,-15.10937 110.867,0 112.9315,0.2557 121.9875,15.10937 4.8233,7.91116 4.9265,11.84502 4.9354,188.10398 l 0.01,180.02384 95.8093,0.015 c 56.8072,0.01 99.4129,1.0146 104.6617,2.4726 10.9037,3.0287 20.8329,12.6007 22.9178,22.0934 3.8267,17.4229 4.1587,17.0475 -165.6817,187.3475 -89.7104,89.9531 -165.4739,163.9802 -170.5062,166.5983 -11.2106,5.8325 -17.8055,5.8068 -28.779,-0.1123 z"
     style="fill:#006dcc;" />
</svg>
